%YAML 1.1
%TAG !u! tag:unity3d.com,2011:
--- !u!114 &11400000
MonoBehaviour:
  m_ObjectHideFlags: 0
  m_CorrespondingSourceObject: {fileID: 0}
  m_PrefabInstance: {fileID: 0}
  m_PrefabAsset: {fileID: 0}
  m_GameObject: {fileID: 0}
  m_Enabled: 1
  m_EditorHideFlags: 0
  m_Script: {fileID: 11500000, guid: 4c7f5f3e752a5b94092f382cc5fbeaaf, type: 3}
  m_Name: ItemDatabase
  m_EditorClassIdentifier: 
  items:
  - id: 1
    itemName: "\u0417\u0435\u043B\u044C\u0435 \u0423\u0440\u043E\u043D\u0430"
    description: "\u0414\u0430\u0451\u0442 \u043F\u043E\u0432\u044B\u0448\u0435\u043D\u043D\u044B\u0439
      \u0443\u0440\u043E\u043D"
    icon: {fileID: 21300000, guid: a746a7a38d343e14b9950ae14d6dc911, type: 3}
    type: 0
    value: 25
  - id: 2
    itemName: "\u0417\u0435\u043B\u044C\u0435 \u0437\u0430\u0449\u0438\u0442\u044B"
    description: "\u0414\u0430\u0451\u0442 \u0437\u0430\u0449\u0438\u0442\u0443 \u043E\u0442
      \u0443\u0440\u043E\u043D\u0430"
    icon: {fileID: 21300000, guid: e509ff591a0d35240ad537b5cc300245, type: 3}
    type: 2
    value: 5
  - id: 0
    itemName: "\u0417\u0435\u043B\u044C\u0435 \u0441\u0438\u043B\u044B"
    description: "\u0414\u0430\u0451\u0442 \u0441\u0438\u043B\u0443 \u043F\u0435\u0440\u0441\u043E\u043D\u0430\u0436\u0443"
    icon: {fileID: 21300000, guid: 79e84459dbc26d94a8ce835c13e1f5a0, type: 3}
    type: 1
    value: 2
  currentItem:
    id: 0
    itemName: "\u0417\u0435\u043B\u044C\u0435 \u0441\u0438\u043B\u044B"
    description: "\u0414\u0430\u0451\u0442 \u0441\u0438\u043B\u0443 \u043F\u0435\u0440\u0441\u043E\u043D\u0430\u0436\u0443"
    icon: {fileID: 21300000, guid: 79e84459dbc26d94a8ce835c13e1f5a0, type: 3}
    type: 1
    value: 3
