%YAML 1.1
%TAG !u! tag:unity3d.com,2011:
--- !u!1 &3089807748114175150
GameObject:
  m_ObjectHideFlags: 0
  m_CorrespondingSourceObject: {fileID: 0}
  m_PrefabInstance: {fileID: 0}
  m_PrefabAsset: {fileID: 0}
  serializedVersion: 6
  m_Component:
  - component: {fileID: 3089807748114175056}
  - component: {fileID: 3089807748114175057}
  m_Layer: 0
  m_Name: Instructor
  m_TagString: Untagged
  m_Icon: {fileID: 0}
  m_NavMeshLayer: 0
  m_StaticEditorFlags: 0
  m_IsActive: 1
--- !u!4 &3089807748114175056
Transform:
  m_ObjectHideFlags: 0
  m_CorrespondingSourceObject: {fileID: 0}
  m_PrefabInstance: {fileID: 0}
  m_PrefabAsset: {fileID: 0}
  m_GameObject: {fileID: 3089807748114175150}
  m_LocalRotation: {x: 0, y: 0, z: 0, w: 1}
  m_LocalPosition: {x: 0.5619111, y: 3.254955, z: -51.068893}
  m_LocalScale: {x: 1, y: 1, z: 1}
  m_Children: []
  m_Father: {fileID: 0}
  m_RootOrder: 0
  m_LocalEulerAnglesHint: {x: 0, y: 0, z: 0}
--- !u!114 &3089807748114175057
MonoBehaviour:
  m_ObjectHideFlags: 0
  m_CorrespondingSourceObject: {fileID: 0}
  m_PrefabInstance: {fileID: 0}
  m_PrefabAsset: {fileID: 0}
  m_GameObject: {fileID: 3089807748114175150}
  m_Enabled: 1
  m_EditorHideFlags: 0
  m_Script: {fileID: 11500000, guid: 28ddbe821158596449e583fd43b27543, type: 3}
  m_Name: 
  m_EditorClassIdentifier: 
  player: {fileID: 0}
  cursor: {fileID: 0}
  cursorText: {fileID: 0}
  left: {fileID: 0}
  right: {fileID: 0}
  jump: {fileID: 0}
  fire: {fileID: 0}
  wolf: {fileID: 0}
  ladder: {fileID: 0}
  glass: {fileID: 0}
  leftComplite: 0
  rightComplite: 0
  jumpComplite: 0
  fireComplite: 0
  wolfComplite: 0
  ladderComplite: 0
  glassComplite: 0
